Fluxo de Trabalho Reprodutível com Dados Ecológicos em R
…
Comparações

Vetores lógicos nascem de comparações: <, <=, >, >=, !=, ==.

No filter(), essas condições são calculadas e descartadas após o filtro.

library(dados)
voos |> 
  filter(horario_saida > 600,
         horario_saida < 2000,
         abs(atraso_chegada) < 20)

# A tibble: 172,286 × 19
     ano   mes   dia horario_saida saida_programada atraso_saida horario_chegada
   <int> <int> <int>         <int>            <int>        <dbl>           <int>
 1  2013     1     1           601              600            1             844
 2  2013     1     1           602              610           -8             812
 3  2013     1     1           602              605           -3             821
 4  2013     1     1           606              610           -4             858
 5  2013     1     1           606              610           -4             837
 6  2013     1     1           607              607            0             858
 7  2013     1     1           611              600           11             945
 8  2013     1     1           613              610            3             925
 9  2013     1     1           615              615            0             833
10  2013     1     1           622              630           -8            1017
# ℹ 172,276 more rows
# ℹ 12 more variables: chegada_prevista <int>, atraso_chegada <dbl>,
#   companhia_aerea <chr>, voo <int>, cauda <chr>, origem <chr>, destino <chr>,
#   tempo_voo <dbl>, distancia <dbl>, hora <dbl>, minuto <dbl>,
#   data_hora <dttm>

Com apenas um atalho e você pode explicitamente criar a variável lógica intrínseca com mutate():

voos |> 
  mutate(
    diurno = horario_saida > 600 & horario_saida < 2000,
    aprox_no_horario = abs(atraso_chegada) < 20,
    .keep = "used"
  )

# A tibble: 336,776 × 4
   horario_saida atraso_chegada diurno aprox_no_horario
           <int>          <dbl> <lgl>  <lgl>           
 1           517             11 FALSE  TRUE            
 2           533             20 FALSE  FALSE           
 3           542             33 FALSE  FALSE           
 4           544            -18 FALSE  TRUE            
 5           554            -25 FALSE  FALSE           
 6           554             12 FALSE  TRUE            
 7           555             19 FALSE  TRUE            
 8           557            -14 FALSE  TRUE            
 9           557             -8 FALSE  TRUE            
10           558              8 FALSE  TRUE            
# ℹ 336,766 more rows

Com isto, o filtro inicial é equivalente a:

voos |> 
  mutate(
    diurno = horario_saida > 600 & horario_saida < 2000,
    aprox_no_horario = abs(atraso_chegada) < 20,
  ) |> 
  filter(diurno & aprox_no_horario)

# A tibble: 172,286 × 21
     ano   mes   dia horario_saida saida_programada atraso_saida horario_chegada
   <int> <int> <int>         <int>            <int>        <dbl>           <int>
 1  2013     1     1           601              600            1             844
 2  2013     1     1           602              610           -8             812
 3  2013     1     1           602              605           -3             821
 4  2013     1     1           606              610           -4             858
 5  2013     1     1           606              610           -4             837
 6  2013     1     1           607              607            0             858
 7  2013     1     1           611              600           11             945
 8  2013     1     1           613              610            3             925
 9  2013     1     1           615              615            0             833
10  2013     1     1           622              630           -8            1017
# ℹ 172,276 more rows
# ℹ 14 more variables: chegada_prevista <int>, atraso_chegada <dbl>,
#   companhia_aerea <chr>, voo <int>, cauda <chr>, origem <chr>, destino <chr>,
#   tempo_voo <dbl>, distancia <dbl>, hora <dbl>, minuto <dbl>,
#   data_hora <dttm>, diurno <lgl>, aprox_no_horario <lgl>

Contagens

voos |> count(destino)

# A tibble: 105 × 2
   destino     n
   <chr>   <int>
 1 ABQ       254
 2 ACK       265
 3 ALB       439
 4 ANC         8
 5 ATL     17215
 6 AUS      2439
 7 AVL       275
 8 BDL       443
 9 BGR       375
10 BHM       297
# ℹ 95 more rows

voos |> count(destino, sort = TRUE)

# A tibble: 105 × 2
   destino     n
   <chr>   <int>
 1 ORD     17283
 2 ATL     17215
 3 LAX     16174
 4 BOS     15508
 5 MCO     14082
 6 CLT     14064
 7 SFO     13331
 8 FLL     12055
 9 MIA     11728
10 DCA      9705
# ℹ 95 more rows

summarize

voos |> 
  group_by(destino) |> 
  summarize(
    n = n(),
    atraso_min = min(atraso_chegada, na.rm = TRUE),
    atraso_medio = mean(atraso_chegada, na.rm = TRUE),
    desvio_padrao = sd(atraso_chegada, na.rm = TRUE),
    atraso_max = max(atraso_chegada, na.rm = TRUE)
  )

# A tibble: 105 × 6
   destino     n atraso_min atraso_medio desvio_padrao atraso_max
   <chr>   <int>      <dbl>        <dbl>         <dbl>      <dbl>
 1 ABQ       254        -61         4.38          42.0        153
 2 ACK       265        -25         4.85          30.0        221
 3 ALB       439        -34        14.4           50.5        328
 4 ANC         8        -47        -2.5           26.4         39
 5 ATL     17215        -49        11.3           47.0        895
 6 AUS      2439        -59         6.02          43.5        349
 7 AVL       275        -29         8.00          33.6        228
 8 BDL       443        -43         7.05          42.1        266
 9 BGR       375        -43         8.03          46.4        238
10 BHM       297        -50        16.9           56.2        291
# ℹ 95 more rows
…
